

  ___ _____ _       ___   _____                                _       _        
 / _ \_   _| |     / _ \ /  ___|                              | |     | |       
/ /_\ \| | | |    / /_\ \\ `--.    ___  _ __   ___ _ __     __| | __ _| |_ __ _ 
|  _  || | | |    |  _  | `--. \  / _ \| '_ \ / _ \ '_ \   / _` |/ _` | __/ _` |
| | | || | | |____| | | |/\__/ / | (_) | |_) |  __/ | | | | (_| | (_| | || (_| |
\_| |_/\_/ \_____/\_| |_/\____/   \___/| .__/ \___|_| |_|  \__,_|\__,_|\__\__,_|
                                       | |                                      
                                       |_|                                      

